microprocessor_code/compiled_files/d_flipflop.vcd
$date
	Thu Jan 16 20:35:27 2025
$end
$version
	Icarus Verilog
$end
$timescale
	1ps
$end
$scope module d_flipflop_tb $end
$var wire 1 ! q $end
$var reg 1 " clk $end
$var reg 1 # datain $end
$var reg 1 $ preset $end
$scope module uut $end
$var wire 1 " clk $end
$var wire 1 # datain $end
$var wire 1 $ preset $end
$var reg 1 ! q $end
$upscope $end
$upscope $end
$enddefinitions $end
$comment Show the parameter values. $end
$dumpall
$end
#0
$dumpvars
0$
0#
0"
x!
$end
#5000
0!
1"
#10000
1!
0"
1$
#15000
1"
#20000
0"
0$
#25000
0!
1"
#30000
0"
1#
#35000
1!
1"
#40000
0"
#45000
1"
#50000
0"
0#
#55000
0!
1"
