microprocessor_code/compiled_files/simplest3.vcd
$date
	Sun Jan 19 14:12:17 2025
$end
$version
	Icarus Verilog
$end
$timescale
	1ps
$end
$scope module simplest3_tb $end
$var wire 1 ! accumulator_output $end
$var reg 1 " clk $end
$var reg 1 # counter_ram8_reset $end
$var reg 1 $ preset $end
$scope module uut $end
$var wire 1 " clk $end
$var wire 1 # counter_ram8_reset $end
$var wire 1 $ preset $end
$var wire 16 % stack_out [15:0] $end
$var wire 8 & ram8_out [7:0] $end
$var wire 1 ' p_out $end
$var wire 1 ( mux_out $end
$var wire 17 ) dataout_address_and_condition [16:0] $end
$var wire 1 * d $end
$var wire 16 + count_out [15:0] $end
$var wire 1 ! accumulator_output $end
$var reg 1 , accumulator_flipflop_preset $end
$var reg 1 - preset_flipflop_input $end
$var reg 1 . ram1_clear $end
$var reg 1 / ram8_clear $end
$scope module accumulator_flipflop $end
$var wire 1 " clk $end
$var wire 1 , preset $end
$var wire 1 ! q $end
$var wire 1 ( datain $end
$var reg 1 ! q_reg $end
$upscope $end
$scope module counter_ram8 $end
$var wire 1 " clk $end
$var wire 16 0 datain [15:0] $end
$var wire 1 1 load $end
$var wire 1 # reset $end
$var wire 16 2 dataout [15:0] $end
$var reg 16 3 dataout_reg [15:0] $end
$upscope $end
$scope module mux $end
$var wire 1 4 A $end
$var wire 1 ( Y $end
$var wire 1 ' Sel $end
$var wire 1 * B $end
$upscope $end
$scope module preset_flipflop $end
$var wire 1 " clk $end
$var wire 1 - datain $end
$var wire 1 5 preset $end
$var wire 1 ' q $end
$var reg 1 ' q_reg $end
$upscope $end
$scope module ram1 $end
$var wire 6 6 address [5:0] $end
$var wire 1 . clear $end
$var wire 1 " clk $end
$var wire 1 ! datain $end
$var wire 1 7 store $end
$var wire 17 8 dataout_address_and_condition [16:0] $end
$var wire 1 * dataout $end
$var integer 32 9 i [31:0] $end
$upscope $end
$scope module ram8 $end
$var wire 16 : address [15:0] $end
$var wire 1 / clear $end
$var wire 8 ; dataout [7:0] $end
$var integer 32 < i [31:0] $end
$upscope $end
$scope module stack_jump $end
$var wire 1 " clk $end
$var wire 16 = datain [15:0] $end
$var wire 1 > pop $end
$var wire 1 ? push $end
$var reg 16 @ dataout [15:0] $end
$var reg 5 A sp [4:0] $end
$upscope $end
$upscope $end
$upscope $end
$enddefinitions $end
$comment Show the parameter values. $end
$dumpall
$end
#0
$dumpvars
b0 A
b0 @
x?
x>
bx =
bx <
bx ;
bx :
bx 9
bx 8
x7
bx 6
x5
x4
bx 3
bx 2
x1
bx 0
0/
0.
0-
0,
bx +
x*
bx )
x(
x'
bx &
b0 %
0$
0#
0"
x!
$end
#1000
1(
b0 0
0>
0?
1*
b10000000000000000 )
b10000000000000000 8
07
b0 6
01
b0 &
b0 ;
1'
b0 +
b0 2
b0 3
b0 :
b0 =
15
1#
1$
#3000
05
0#
0$
#5000
0*
b1 )
b1 8
14
b1 6
1(
b1 &
b1 ;
1!
b1 +
b1 2
b1 3
b1 :
b1 =
0'
1"
#10000
0"
#15000
0(
1'
15
b10 )
b10 8
17
b10 6
b10000010 &
b10000010 ;
b10 +
b10 2
b10 3
b10 :
b10 =
1"
#20000
0"
#25000
b1010 0
1?
0(
07
b100 6
11
b1000100 &
b1000100 ;
0*
b1010 )
b1010 8
0!
b11 +
b11 2
b11 3
b11 :
b11 =
1"
#30000
0"
#35000
1(
b0 0
05
0?
1*
b10100000000000000 )
b10100000000000000 8
b0 6
01
b0 &
b0 ;
b1010 +
b1010 2
b1010 3
b1010 :
b1010 =
b1 A
1"
#40000
0"
#45000
b10000000000000010 )
b10000000000000010 8
04
b10 6
0(
b10 &
b10 ;
1!
b1011 +
b1011 2
b1011 3
b1011 :
b1011 =
0'
1"
#50000
0"
#55000
1'
1(
15
b10100000000000000 )
b10100000000000000 8
14
17
b0 6
b10000000 &
b10000000 ;
0!
b1100 +
b1100 2
b1100 3
b1100 :
b1100 =
1"
#60000
0"
#65000
05
0(
07
b1 6
b1 &
b1 ;
0*
b1000000000000001 )
b1000000000000001 8
1!
b1101 +
b1101 2
b1101 3
b1101 :
b1101 =
1"
#70000
0"
#75000
1*
b10000000000000010 )
b10000000000000010 8
1(
b10 6
b10 &
b10 ;
0!
b1110 +
b1110 2
b1110 3
b1110 :
b1110 =
0'
1"
#80000
0"
#85000
1'
0(
15
0*
b1000000000000001 )
b1000000000000001 8
14
17
b1 6
b10000001 &
b10000001 ;
1!
b1111 +
b1111 2
b1111 3
b1111 :
b1111 =
1"
#90000
0"
#95000
b11 0
b11 %
b11 @
1>
0(
b0 6
11
b11000000 &
b11000000 ;
0*
b1100000000000000 )
b1100000000000000 8
0!
b10000 +
b10000 2
b10000 3
b10000 :
b10000 =
1"
#100000
0"
#105000
1?
0>
b1010 )
b1010 8
07
b100 6
b1010 0
b1000100 &
b1000100 ;
b0 %
b0 @
b11 +
b11 2
b11 3
b11 :
b11 =
b0 A
1"
#110000
0"
#115000
b0 0
05
0?
b1100000000000000 )
b1100000000000000 8
b0 6
01
b0 &
b0 ;
b1010 +
b1010 2
b1010 3
b1010 :
b1010 =
b1 A
1"
#120000
0"
#125000
1*
b10000000000000010 )
b10000000000000010 8
1(
b10 6
b10 &
b10 ;
b1011 +
b1011 2
b1011 3
b1011 :
b1011 =
0'
1"
#130000
0"
#135000
1'
0(
15
0*
b1100000000000000 )
b1100000000000000 8
14
17
b0 6
b10000000 &
b10000000 ;
1!
b1100 +
b1100 2
b1100 3
b1100 :
b1100 =
1"
#140000
0"
#145000
05
1(
07
b1 6
b1 &
b1 ;
1*
b11000000000000001 )
b11000000000000001 8
0!
b1101 +
b1101 2
b1101 3
b1101 :
b1101 =
1"
#150000
0"
#155000
b10000000000000010 )
b10000000000000010 8
04
b10 6
0(
b10 &
b10 ;
1!
b1110 +
b1110 2
b1110 3
b1110 :
b1110 =
0'
1"
#160000
0"
#165000
1'
1(
15
b11000000000000001 )
b11000000000000001 8
14
17
b1 6
b10000001 &
b10000001 ;
0!
b1111 +
b1111 2
b1111 3
b1111 :
b1111 =
1"
#170000
0"
#175000
b11 0
04
b11 %
b11 @
1>
1(
b0 6
11
b11000000 &
b11000000 ;
1*
b10100000000000000 )
b10100000000000000 8
1!
b10000 +
b10000 2
b10000 3
b10000 :
b10000 =
1"
#180000
0"
#185000
0(
14
1?
0>
0*
b1010 )
b1010 8
07
b100 6
b1010 0
b1000100 &
b1000100 ;
b0 %
b0 @
b11 +
b11 2
b11 3
b11 :
b11 =
b0 A
1"
#190000
0"
#195000
1(
b0 0
05
0?
1*
b10100000000000000 )
b10100000000000000 8
b0 6
01
b0 &
b0 ;
0!
b1010 +
b1010 2
b1010 3
b1010 :
b1010 =
b1 A
1"
#200000
0"
#205000
b10000000000000010 )
b10000000000000010 8
04
b10 6
0(
b10 &
b10 ;
1!
b1011 +
b1011 2
b1011 3
b1011 :
b1011 =
0'
1"
#210000
0"
#215000
1'
1(
15
b10100000000000000 )
b10100000000000000 8
14
17
b0 6
b10000000 &
b10000000 ;
0!
b1100 +
b1100 2
b1100 3
b1100 :
b1100 =
1"
#220000
0"
#225000
05
0(
07
b1 6
b1 &
b1 ;
0*
b1000000000000001 )
b1000000000000001 8
1!
b1101 +
b1101 2
b1101 3
b1101 :
b1101 =
1"
#230000
0"
#235000
1*
b10000000000000010 )
b10000000000000010 8
1(
b10 6
b10 &
b10 ;
0!
b1110 +
b1110 2
b1110 3
b1110 :
b1110 =
0'
1"
#240000
0"
#245000
1'
0(
15
0*
b1000000000000001 )
b1000000000000001 8
14
17
b1 6
b10000001 &
b10000001 ;
1!
b1111 +
b1111 2
b1111 3
b1111 :
b1111 =
1"
#250000
0"
#255000
b11 0
b11 %
b11 @
1>
0(
b0 6
11
b11000000 &
b11000000 ;
0*
b1100000000000000 )
b1100000000000000 8
0!
b10000 +
b10000 2
b10000 3
b10000 :
b10000 =
1"
#260000
0"
#265000
1?
0>
b1010 )
b1010 8
07
b100 6
b1010 0
b1000100 &
b1000100 ;
b0 %
b0 @
b11 +
b11 2
b11 3
b11 :
b11 =
b0 A
1"
#270000
0"
#275000
b0 0
05
0?
b1100000000000000 )
b1100000000000000 8
b0 6
01
b0 &
b0 ;
b1010 +
b1010 2
b1010 3
b1010 :
b1010 =
b1 A
1"
#280000
0"
#285000
1*
b10000000000000010 )
b10000000000000010 8
1(
b10 6
b10 &
b10 ;
b1011 +
b1011 2
b1011 3
b1011 :
b1011 =
0'
1"
#290000
0"
#295000
1'
0(
15
0*
b1100000000000000 )
b1100000000000000 8
14
17
b0 6
b10000000 &
b10000000 ;
1!
b1100 +
b1100 2
b1100 3
b1100 :
b1100 =
1"
#300000
0"
#305000
05
1(
07
b1 6
b1 &
b1 ;
1*
b11000000000000001 )
b11000000000000001 8
0!
b1101 +
b1101 2
b1101 3
b1101 :
b1101 =
1"
#310000
0"
#315000
b10000000000000010 )
b10000000000000010 8
04
b10 6
0(
b10 &
b10 ;
1!
b1110 +
b1110 2
b1110 3
b1110 :
b1110 =
0'
1"
#320000
0"
#325000
1'
1(
15
b11000000000000001 )
b11000000000000001 8
14
17
b1 6
b10000001 &
b10000001 ;
0!
b1111 +
b1111 2
b1111 3
b1111 :
b1111 =
1"
#330000
0"
#335000
b11 0
04
b11 %
b11 @
1>
1(
b0 6
11
b11000000 &
b11000000 ;
1*
b10100000000000000 )
b10100000000000000 8
1!
b10000 +
b10000 2
b10000 3
b10000 :
b10000 =
1"
#340000
0"
#345000
0(
14
1?
0>
0*
b1010 )
b1010 8
07
b100 6
b1010 0
b1000100 &
b1000100 ;
b0 %
b0 @
b11 +
b11 2
b11 3
b11 :
b11 =
b0 A
1"
#350000
0"
#355000
1(
b0 0
05
0?
1*
b10100000000000000 )
b10100000000000000 8
b0 6
01
b0 &
b0 ;
0!
b1010 +
b1010 2
b1010 3
b1010 :
b1010 =
b1 A
1"
#360000
0"
#365000
b10000000000000010 )
b10000000000000010 8
04
b10 6
0(
b10 &
b10 ;
1!
b1011 +
b1011 2
b1011 3
b1011 :
b1011 =
0'
1"
#370000
0"
#375000
1'
1(
15
b10100000000000000 )
b10100000000000000 8
14
17
b0 6
b10000000 &
b10000000 ;
0!
b1100 +
b1100 2
b1100 3
b1100 :
b1100 =
1"
#380000
0"
#385000
05
0(
07
b1 6
b1 &
b1 ;
0*
b1000000000000001 )
b1000000000000001 8
1!
b1101 +
b1101 2
b1101 3
b1101 :
b1101 =
1"
#390000
0"
#395000
1*
b10000000000000010 )
b10000000000000010 8
1(
b10 6
b10 &
b10 ;
0!
b1110 +
b1110 2
b1110 3
b1110 :
b1110 =
0'
1"
#400000
0"
#405000
1'
0(
15
0*
b1000000000000001 )
b1000000000000001 8
14
17
b1 6
b10000001 &
b10000001 ;
1!
b1111 +
b1111 2
b1111 3
b1111 :
b1111 =
1"
#410000
0"
#415000
b11 0
b11 %
b11 @
1>
0(
b0 6
11
b11000000 &
b11000000 ;
0*
b1100000000000000 )
b1100000000000000 8
0!
b10000 +
b10000 2
b10000 3
b10000 :
b10000 =
1"
#420000
0"
#425000
1?
0>
b1010 )
b1010 8
07
b100 6
b1010 0
b1000100 &
b1000100 ;
b0 %
b0 @
b11 +
b11 2
b11 3
b11 :
b11 =
b0 A
1"
#430000
0"
#435000
b0 0
05
0?
b1100000000000000 )
b1100000000000000 8
b0 6
01
b0 &
b0 ;
b1010 +
b1010 2
b1010 3
b1010 :
b1010 =
b1 A
1"
#440000
0"
#445000
1*
b10000000000000010 )
b10000000000000010 8
1(
b10 6
b10 &
b10 ;
b1011 +
b1011 2
b1011 3
b1011 :
b1011 =
0'
1"
#450000
0"
#455000
1'
0(
15
0*
b1100000000000000 )
b1100000000000000 8
14
17
b0 6
b10000000 &
b10000000 ;
1!
b1100 +
b1100 2
b1100 3
b1100 :
b1100 =
1"
#460000
0"
#465000
05
1(
07
b1 6
b1 &
b1 ;
1*
b11000000000000001 )
b11000000000000001 8
0!
b1101 +
b1101 2
b1101 3
b1101 :
b1101 =
1"
#470000
0"
#475000
b10000000000000010 )
b10000000000000010 8
04
b10 6
0(
b10 &
b10 ;
1!
b1110 +
b1110 2
b1110 3
b1110 :
b1110 =
0'
1"
#480000
0"
#485000
1'
1(
15
b11000000000000001 )
b11000000000000001 8
14
17
b1 6
b10000001 &
b10000001 ;
0!
b1111 +
b1111 2
b1111 3
b1111 :
b1111 =
1"
#490000
0"
#495000
b11 0
04
b11 %
b11 @
1>
1(
b0 6
11
b11000000 &
b11000000 ;
1*
b10100000000000000 )
b10100000000000000 8
1!
b10000 +
b10000 2
b10000 3
b10000 :
b10000 =
1"
#500000
0"
#505000
0(
14
1?
0>
0*
b1010 )
b1010 8
07
b100 6
b1010 0
b1000100 &
b1000100 ;
b0 %
b0 @
b11 +
b11 2
b11 3
b11 :
b11 =
b0 A
1"
#510000
0"
#515000
1(
b0 0
05
0?
1*
b10100000000000000 )
b10100000000000000 8
b0 6
01
b0 &
b0 ;
0!
b1010 +
b1010 2
b1010 3
b1010 :
b1010 =
b1 A
1"
#520000
0"
#525000
b10000000000000010 )
b10000000000000010 8
04
b10 6
0(
b10 &
b10 ;
1!
b1011 +
b1011 2
b1011 3
b1011 :
b1011 =
0'
1"
#530000
0"
#535000
1'
1(
15
b10100000000000000 )
b10100000000000000 8
14
17
b0 6
b10000000 &
b10000000 ;
0!
b1100 +
b1100 2
b1100 3
b1100 :
b1100 =
1"
#540000
0"
#545000
05
0(
07
b1 6
b1 &
b1 ;
0*
b1000000000000001 )
b1000000000000001 8
1!
b1101 +
b1101 2
b1101 3
b1101 :
b1101 =
1"
#550000
0"
#555000
1*
b10000000000000010 )
b10000000000000010 8
1(
b10 6
b10 &
b10 ;
0!
b1110 +
b1110 2
b1110 3
b1110 :
b1110 =
0'
1"
#560000
0"
#565000
1'
0(
15
0*
b1000000000000001 )
b1000000000000001 8
14
17
b1 6
b10000001 &
b10000001 ;
1!
b1111 +
b1111 2
b1111 3
b1111 :
b1111 =
1"
#570000
0"
#575000
b11 0
b11 %
b11 @
1>
0(
b0 6
11
b11000000 &
b11000000 ;
0*
b1100000000000000 )
b1100000000000000 8
0!
b10000 +
b10000 2
b10000 3
b10000 :
b10000 =
1"
#580000
0"
#585000
1?
0>
b1010 )
b1010 8
07
b100 6
b1010 0
b1000100 &
b1000100 ;
b0 %
b0 @
b11 +
b11 2
b11 3
b11 :
b11 =
b0 A
1"
#590000
0"
#595000
b0 0
05
0?
b1100000000000000 )
b1100000000000000 8
b0 6
01
b0 &
b0 ;
b1010 +
b1010 2
b1010 3
b1010 :
b1010 =
b1 A
1"
#600000
0"
#605000
1*
b10000000000000010 )
b10000000000000010 8
1(
b10 6
b10 &
b10 ;
b1011 +
b1011 2
b1011 3
b1011 :
b1011 =
0'
1"
#610000
0"
#615000
1'
0(
15
0*
b1100000000000000 )
b1100000000000000 8
14
17
b0 6
b10000000 &
b10000000 ;
1!
b1100 +
b1100 2
b1100 3
b1100 :
b1100 =
1"
#620000
0"
#625000
05
1(
07
b1 6
b1 &
b1 ;
1*
b11000000000000001 )
b11000000000000001 8
0!
b1101 +
b1101 2
b1101 3
b1101 :
b1101 =
1"
#630000
0"
#635000
b10000000000000010 )
b10000000000000010 8
04
b10 6
0(
b10 &
b10 ;
1!
b1110 +
b1110 2
b1110 3
b1110 :
b1110 =
0'
1"
#640000
0"
#645000
1'
1(
15
b11000000000000001 )
b11000000000000001 8
14
17
b1 6
b10000001 &
b10000001 ;
0!
b1111 +
b1111 2
b1111 3
b1111 :
b1111 =
1"
#650000
0"
#655000
b11 0
04
b11 %
b11 @
1>
1(
b0 6
11
b11000000 &
b11000000 ;
1*
b10100000000000000 )
b10100000000000000 8
1!
b10000 +
b10000 2
b10000 3
b10000 :
b10000 =
1"
#660000
0"
#665000
0(
14
1?
0>
0*
b1010 )
b1010 8
07
b100 6
b1010 0
b1000100 &
b1000100 ;
b0 %
b0 @
b11 +
b11 2
b11 3
b11 :
b11 =
b0 A
1"
#670000
0"
#675000
1(
b0 0
05
0?
1*
b10100000000000000 )
b10100000000000000 8
b0 6
01
b0 &
b0 ;
0!
b1010 +
b1010 2
b1010 3
b1010 :
b1010 =
b1 A
1"
#680000
0"
#685000
b10000000000000010 )
b10000000000000010 8
04
b10 6
0(
b10 &
b10 ;
1!
b1011 +
b1011 2
b1011 3
b1011 :
b1011 =
0'
1"
#690000
0"
#695000
1'
1(
15
b10100000000000000 )
b10100000000000000 8
14
17
b0 6
b10000000 &
b10000000 ;
0!
b1100 +
b1100 2
b1100 3
b1100 :
b1100 =
1"
#700000
0"
#705000
05
0(
07
b1 6
b1 &
b1 ;
0*
b1000000000000001 )
b1000000000000001 8
1!
b1101 +
b1101 2
b1101 3
b1101 :
b1101 =
1"
#710000
0"
#715000
1*
b10000000000000010 )
b10000000000000010 8
1(
b10 6
b10 &
b10 ;
0!
b1110 +
b1110 2
b1110 3
b1110 :
b1110 =
0'
1"
#720000
0"
#725000
1'
0(
15
0*
b1000000000000001 )
b1000000000000001 8
14
17
b1 6
b10000001 &
b10000001 ;
1!
b1111 +
b1111 2
b1111 3
b1111 :
b1111 =
1"
#730000
0"
#735000
b11 0
b11 %
b11 @
1>
0(
b0 6
11
b11000000 &
b11000000 ;
0*
b1100000000000000 )
b1100000000000000 8
0!
b10000 +
b10000 2
b10000 3
b10000 :
b10000 =
1"
#740000
0"
#745000
1?
0>
b1010 )
b1010 8
07
b100 6
b1010 0
b1000100 &
b1000100 ;
b0 %
b0 @
b11 +
b11 2
b11 3
b11 :
b11 =
b0 A
1"
#750000
0"
#755000
b0 0
05
0?
b1100000000000000 )
b1100000000000000 8
b0 6
01
b0 &
b0 ;
b1010 +
b1010 2
b1010 3
b1010 :
b1010 =
b1 A
1"
#760000
0"
#765000
1*
b10000000000000010 )
b10000000000000010 8
1(
b10 6
b10 &
b10 ;
b1011 +
b1011 2
b1011 3
b1011 :
b1011 =
0'
1"
#770000
0"
#775000
1'
0(
15
0*
b1100000000000000 )
b1100000000000000 8
14
17
b0 6
b10000000 &
b10000000 ;
1!
b1100 +
b1100 2
b1100 3
b1100 :
b1100 =
1"
#780000
0"
#785000
05
1(
07
b1 6
b1 &
b1 ;
1*
b11000000000000001 )
b11000000000000001 8
0!
b1101 +
b1101 2
b1101 3
b1101 :
b1101 =
1"
#790000
0"
#795000
b10000000000000010 )
b10000000000000010 8
04
b10 6
0(
b10 &
b10 ;
1!
b1110 +
b1110 2
b1110 3
b1110 :
b1110 =
0'
1"
#800000
0"
#805000
1'
1(
15
b11000000000000001 )
b11000000000000001 8
14
17
b1 6
b10000001 &
b10000001 ;
0!
b1111 +
b1111 2
b1111 3
b1111 :
b1111 =
1"
